<svg width="22" height="22" viewBox="0 0 22 22" fill="none" xmlns="http://www.w3.org/2000/svg">
<path fill-rule="evenodd" clip-rule="evenodd" d="M5.9097 4.12559C5.75255 3.6821 5.12537 3.6821 4.96822 4.12559L4.60385 5.15392C4.55355 5.29588 4.44187 5.40756 4.29991 5.45786L3.27158 5.82223C2.82809 5.97938 2.82809 6.60656 3.27158 6.76371L4.29991 7.12808C4.44187 7.17838 4.55355 7.29006 4.60385 7.43202L4.96822 8.46035C5.12537 8.90384 5.75255 8.90384 5.9097 8.46035L6.27407 7.43202C6.32437 7.29006 6.43605 7.17838 6.57801 7.12808L7.60634 6.76371C8.04983 6.60656 8.04983 5.97938 7.60634 5.82223L6.57801 5.45786C6.43605 5.40756 6.32437 5.29588 6.27407 5.15392L5.9097 4.12559Z" fill="#B2B1B2"/>
<rect x="20.1897" y="3.4375" width="0.755698" height="17.5462" transform="rotate(45 20.1897 3.4375)" fill="#B2B1B2"/>
<path fill-rule="evenodd" clip-rule="evenodd" d="M14.3911 7.50216H12.4168L11.5802 4.94104C11.5472 4.82996 11.4894 4.7278 11.4111 4.64231C11.3306 4.55456 11.2308 4.48681 11.1195 4.44448C11.0083 4.40214 10.8887 4.38639 10.7702 4.39848C10.6521 4.41054 10.5384 4.44998 10.4381 4.51365C10.3026 4.59939 10.1977 4.72598 10.1388 4.87516L10.1388 4.87516L10.1373 4.87907L8.7632 8.46561L8.75001 8.49858L8.74997 8.49857L8.74782 8.5042C8.51884 9.10263 8.49063 9.75928 8.66744 10.3751C8.84426 10.991 9.21651 11.5327 9.72806 11.9185L9.72894 11.9192L9.73131 11.921L9.74022 11.9279L9.74018 11.9279L9.74591 11.9322L9.8689 12.0244L10.4404 11.4529L10.2286 11.2942L10.2197 11.2873L10.2197 11.2873L10.2141 11.283L10.2098 11.2798L10.2094 11.2795C9.83658 10.9982 9.56527 10.6033 9.43638 10.1544C9.30771 9.70622 9.32793 9.22844 9.49396 8.79279L9.50707 8.76002L9.50711 8.76003L9.50921 8.75456L10.8452 5.26733L11.7464 8.02636L11.8365 8.30216H12.1267H13.5911L14.3911 7.50216ZM18.2764 8.15649L18.8957 7.53716L19.2524 8.46762L19.2535 8.47036L19.2535 8.47036L19.2662 8.50434L19.2667 8.50558C19.495 9.10366 19.5228 9.75972 19.346 10.375C19.1693 10.9897 18.7979 11.5305 18.2877 11.916L18.2841 11.9188L18.2783 11.9234L18.2782 11.9233L16.1719 13.4998L16.1705 13.5009L15.1337 14.2843L15.1336 14.2843L14.5029 14.7612L14.5028 14.7613C14.3593 14.8697 14.1845 14.9283 14.0047 14.9283C13.8249 14.9283 13.6501 14.8697 13.5066 14.7613L13.5065 14.7612L12.8758 14.2843L12.8757 14.2843L12.4616 13.9713L13.0327 13.4002L13.3581 13.6461L13.3582 13.6461L13.9888 14.123L13.9889 14.123C13.9935 14.1265 13.999 14.1283 14.0047 14.1283C14.0104 14.1283 14.016 14.1265 14.0205 14.123L14.0206 14.123L14.6512 13.6461L14.6513 13.6461L15.6896 12.8615L15.6911 12.8604L17.7959 11.285L17.7988 11.2827L17.8035 11.2791L17.8036 11.2791C18.1766 10.9979 18.4481 10.603 18.5771 10.154C18.7061 9.70507 18.6857 9.22632 18.5189 8.78995L18.518 8.78759L18.518 8.78759L18.5054 8.75399L18.5044 8.75125L18.2764 8.15649Z" fill="#B2B1B2"/>
</svg>
